{
  "type": "FeatureCollection",
  "features": [
    {
      "type": "Feature",
      "properties": {},
      "geometry": {
        "type": "Polygon",
        "coordinates": [
          [
            [
              76.57340884208678,
              17.76512693745538
            ],
            [
              76.57406330108643,
              17.76512693745538
            ],
            [
              76.57406330108643,
              17.76701711584664
            ],
            [
              76.57340884208678,
              17.76701711584664
            ],
            [
              76.57340884208678,
              17.76512693745538
            ]
          ]
        ]
      }
    },
    {
      "type": "Feature",
      "properties": {},
      "geometry": {
        "type": "Polygon",
        "coordinates": [
          [
            [
              77.5126326084137,
              13.316391494125915
            ],
            [
              77.51339435577393,
              13.316391494125915
            ],
            [
              77.51339435577393,
              13.316850869972171
            ],
            [
              77.5126326084137,
              13.316850869972171
            ],
            [
              77.5126326084137,
              13.316391494125915
            ]
          ]
        ]
      }
    }
  ]
}